{
 "mdsDat": {
 "x": [ -0.021219, 0.07668, 0.26358, -0.28732, 0.24645, -0.25429, -0.023883 ],
"y": [ -0.010369, -0.14354, -0.1298, -0.1719, 0.10959, 0.10042, 0.2456 ],
"topics": [ 1, 2, 3, 4, 5, 6, 7 ],
"Freq": [ 46.197, 25.666, 7.6743, 6.4522, 6.3667, 4.6591, 2.9846 ],
"cluster": [      1,      1,      1,      1,      1,      1,      1 ] 
},
"tinfo": {
 "Term": [ "surfac", "area", "rain", "water", "develop", "imperm", "precipit", "amount", "natur", "flood", "permeabl", "increas", "year", "up", "charleston", "charleston’", "due", "snowfal", "believ", "annual", "rainfal", "therefor", "becom", "isn’t", "cannot", "those", "“the", "issu", "led", "recent", "need", "that’", "gone", "too", "home", "away", "help", "expand", "system", "nowher", "tree", "dirt", "concret", "fix", "destroy", "student’", "theori", "explain", "seem", "argu", "decid", "i’m", "him", "proof", "seen", "inform", "talk", "hesh", "anyth", "point", "field", "soccer", "lake", "pond", "spong", "stream", "materi", "river", "eventu", "small", "jump", "exampl", "creat", "forest", "turn", "class", "collect", "scienc", "damag", "found", "measur", "categori", "danger", "concern", "heavili", "indic", "research", "improv", "city’", "communiti", "lowest", "chanc", "manmad", "reach", "season", "five", "job", "stand", "highest", "man", "resourc", "percent", "lower", "mass", "percentag", "depend", "fill", "storm", "variabl", "fallen", "span", "normal", "experi", "cycl", "fall", "percept", "impermi", "wash", "form", "receiv", "claim", "cover", "even", "meteorologist’", "other", "said", "increas", "caus", "amount", "it’", "imperm", "steadili", "middl", "precipit", "town", "through", "new", "got", "surfac", "big", "mani", "allow", "school", "actual", "absorb", "say", "human", "develop", "thing", "area", "investig", "whi", "problem", "flood", "build", "dure", "rais", "show", "water", "first", "sinc", "use", "right", "becaus", "graph", "wrong", "inch", "rain", "last", "go", "build", "citizen", "start", "sidewalk", "up", "pattern", "go", "everi", "water", "flood", "down", "still", "citi", "three", "area", "data", "year", "land", "local", "develop", "make", "over", "veri", "differ", "meteorologist", "permeabl", "natur", "between", "surfac", "reason", "permeabl", "land", "precipit", "area", "natur", "until", "charleston", "charleston", "make", "flow", "year", "flood", "surfac", "charleston", "up", "amount", "permeabl", "imperm", "chang", "rain", "also", "inaccur", "lot", "develop", "lot", "surfac", "than", "meteorologist", "year", "becaus", "flood", "becaus", "water", "problem", "increas", "imperm", "rain", "up", "time", "natur", "data", "problem", "citi", "increas", "over" ],
"logprob": [     15,     14,     13,     12,     11,     10,      9,      8,      7,      6,      5,      4,      3,      2,      1, -4.1585, -4.261, -5.1177, -5.1699, -5.244, -5.324, -5.324, -5.411, -5.761, -5.7937, -5.8276, -5.9367, -5.9759, -6.0592, -6.0592, -4.7162, -5.1113, -5.2066, -5.3119, -5.3496, -5.3888, -5.3888, -5.4295, -5.563, -5.6117, -5.774, -5.8346, -5.8991, -5.9679, -6.0419, -4.9169, -5.0038, -5.0989, -5.3215, -5.4547, -5.6084, -5.6084,  -5.79,  -5.79,  -5.79, -4.6941, -5.4547, -5.4547, -4.9169, -5.6084, -3.7034, -4.094, -4.9257, -5.4352, -5.6169, -5.6169, -3.6744, -5.0309, -5.4352, -5.2816, -5.6169, -5.1484, -4.0106, -5.0309, -6.1251, -3.4325, -3.8492, -3.9583, -4.3828, -4.6507, -4.6507, -5.0177, -5.0177, -5.1353, -5.1353, -5.1353, -5.1353, -5.2684, -5.4221, -5.4221, -4.4198, -4.707, -5.1113, -5.1113, -5.1113, -5.293, -5.293, -5.293, -4.6018, -4.6018, -5.1113, -3.0558, -3.8145, -4.8245, -2.863, -4.2646, -4.5153, -4.5153, -4.5153, -4.8506, -4.8506, -5.0728, -4.8506, -4.669, -3.2444, -5.0728, -4.0643, -5.3588, -5.3588, -4.0643, -3.9751, -4.9257, -4.9703, -4.6845, -4.6568, -3.4712, -2.8838, -3.4525, -3.8249, -4.7794, -3.0665, -5.411, -3.7201, -3.0386, -4.0131, -3.0556, -5.1113, -4.1446, -2.8875, -4.2646, -4.6762, -3.6744, -3.325, -3.9775, -4.8944, -3.5529, -4.0514, -3.3319, -4.3886, -3.1601, -4.3828, -4.2387, -3.6661, -2.7691, -3.6956, -4.763, -4.5067, -4.4859, -2.2743, -4.6941, -4.4079, -4.6762, -4.512, -3.2193, -3.1691, -3.7394, -3.0993, -2.045, -3.9583, -3.681, -3.0711, -4.3257, -3.3958, -3.8974, -3.7562, -4.1069, -2.9534, -3.9097, -3.3001, -2.7794, -3.4718, -4.0643, -3.0425, -4.6507, -2.5573, -3.3666, -2.7952, -3.8019, -3.479, -2.7874, -4.4492, -3.5531, -3.9097, -3.8236, -3.3256, -4.1329, -2.9171, -4.2671, -2.7528, -4.374, -3.1683, -3.7485, -2.9965, -2.6866, -3.9806, -4.0355, -3.3778, -3.0897, -3.5726, -4.2848, -3.3881, -3.0088, -2.863, -3.9354, -3.2444, -3.2852, -3.5922, -3.0558, -3.8609, -3.9735, -3.9688, -4.0355, -3.7826, -3.1924, -3.6297, -3.0622, -3.8236, -3.7201, -3.5726, -3.6894, -3.3666, -3.4186, -3.4186, -4.3177, -3.6462, -3.7034, -3.7201, -3.7275, -3.8976, -3.7957, -4.0355, -3.7826, -4.4337, -4.0705, -3.9097 ],
"loglift": [     15,     14,     13,     12,     11,     10,      9,      8,      7,      6,      5,      4,      3,      2,      1, 0.7715, 0.7714, 0.7702, 0.7701,   0.77, 0.7698, 0.7698, 0.7695, 0.7684, 0.7683, 0.7681, 0.7677, 0.7675, 0.7671, 0.7671, 1.3576, 1.3564,  1.356, 1.3556, 1.3554, 1.3552, 1.3552,  1.355, 1.3543,  1.354,  1.353, 1.3526, 1.3521, 1.3515, 1.3509, 2.5574, 2.5565, 2.5554, 2.5524, 2.5504, 2.5476, 2.5476, 2.5437, 2.5437, 2.5437, 2.4353, 2.4199,  2.419, 2.4051, 2.3967, 2.7372, 2.7356, 2.7288,  2.721, 2.7171, 2.7171,  2.682, 2.6242, 2.5704, 2.4762, 2.2591, 2.2477, 2.2422, 2.2218, 2.2096, 2.7514,   2.75, 2.7495, 2.7471, 2.7449, 2.7449, 2.7409, 2.7409, 2.7392, 2.7392, 2.7392, 2.7392, 2.7371, 2.7344, 2.7344, 3.0564, 3.0531, 3.0466, 3.0466, 3.0466, 3.0427, 3.0427, 3.0427, 2.9602, 2.9599,  2.895, 2.8884, 2.8564, 2.8308, 2.7499, 3.4984, 3.4947, 3.4947, 3.4947,  3.488,  3.488, 3.2643, 3.1579, 3.0925, 3.0879, 3.0871, 3.0676,  2.978, 2.9778, 2.9577, 0.7609, 2.2028,  1.331, 0.7386,   1.32,  2.338, 0.6593, 0.6718, 0.6667, 1.2946, 0.6101, 0.7472, 2.6365,   0.57, 1.2359, 2.0766, 1.2978, 2.2951, 0.4965, 2.8668,  1.247,  2.059, 2.5003, 2.8104, 1.2646, 2.1665, 2.0874,  0.467,  1.184, 0.4002, 2.5853, 1.1236, 0.4269, 0.2089, 0.9746, 2.3096, 2.7482, 0.6063, 1.5315, 2.2254, 0.5825, 1.1474, 2.1572, 0.6763, 1.7245, 1.9109, 2.2844,  2.096, 2.3452, 0.7785, 1.5991, 2.4203, 1.6827, 1.9269, 0.7278, 1.9679, 1.5062, 2.4466, 0.5057, 0.1986, 2.1146,  2.766, 1.6227, 2.4784, 1.0029, 1.7738, 1.7196, 0.2286,  1.816, 1.0115, 0.9656, 1.7153, 2.1866, 2.4323, 1.1707, 0.3635, 1.2801, 1.8705, 0.6312, 0.8744, 1.3281,  0.282, 0.6121, 0.8736, 0.2166, 1.6014, 0.7503, 1.0383, 1.8423, 1.9679, 1.1267, -0.0308,  0.521, 0.1927, 1.2397, 1.2064, 0.9042, 0.6208, 1.8177, 0.1674, 1.2281, 1.3367, 1.4952, 0.6066, 1.6481, 0.3218, 1.8535, 0.7762, 0.9422, 0.2061, -0.3886,  0.477, 0.3872, -0.2248, -0.1031, -0.0267, 0.4209, 0.7566, 1.6404, 0.4015, 1.1049, 0.3104, 0.2314, -0.5274, 1.3587 ],
"Freq": [    721,    605,    338,    473,    476,    538,    576,    238,    320,   1083,    237,    615,    233,    240,    343, 153.73, 138.76, 58.908, 55.913, 51.921, 47.929, 47.929, 43.936, 30.961, 29.963, 28.965,  25.97, 24.972, 22.976, 22.976, 48.898, 32.938, 29.945, 26.953, 25.955, 24.958, 24.958,  23.96, 20.968,  19.97, 16.978,  15.98, 14.983, 13.985, 12.988, 11.962, 10.967, 9.9719, 7.9815, 6.9863, 5.9911, 5.9911, 4.9959, 4.9959, 4.9959, 14.948, 6.9863, 6.9863, 11.962, 5.9911, 33.846, 22.902, 9.9688, 5.9892, 4.9943, 4.9943, 34.841, 8.9739, 5.9892, 6.9841, 4.9943,  7.979, 24.892, 8.9739, 3.0046, 43.785, 28.865, 25.881, 16.929, 12.951, 12.951, 8.9719, 8.9719, 7.9773, 7.9773, 7.9773, 7.9773, 6.9826, 5.9879, 5.9879, 11.938, 8.9588, 5.9791, 5.9791, 5.9791, 4.9859, 4.9859, 4.9859,  9.952,  9.952, 5.9791, 46.701, 21.871, 7.9656, 56.633, 8.9318, 6.9514, 6.9514, 6.9514, 4.9709, 4.9709, 3.9807, 4.9709, 5.9611, 24.775, 3.9807, 10.912, 2.9905, 2.9905, 10.912, 184.67, 9.9688, 37.925, 90.847, 51.891, 50.775, 549.97, 311.43, 214.61, 45.906, 458.15, 43.936, 32.844, 471.12, 98.774, 64.688, 32.938, 25.895, 547.97, 8.9318, 50.893, 34.841, 48.759, 11.902, 40.918, 46.794, 23.897, 351.35, 67.851, 417.22, 16.929, 78.824, 251.54, 616.84, 135.68, 13.953, 10.945, 110.81, 141.29, 14.948, 119.79, 50.893, 17.934, 218.48, 68.689, 38.833, 44.715, 82.208, 25.881, 137.68, 63.693, 17.924, 54.756, 27.877,  127.7,  26.89, 71.652, 19.884, 201.52, 339.17,  30.81, 10.912, 64.674, 12.951, 106.47, 46.769, 60.606,  219.6, 41.796, 84.586, 63.861, 38.812, 19.884, 13.883, 58.737, 157.72, 53.653,  22.91,  87.57, 68.848, 41.735,  128.7, 81.626, 67.558, 183.67, 28.881, 55.751, 61.689, 17.844, 18.923, 45.775, 80.631, 56.633, 106.75, 24.775, 23.785, 37.826, 46.701, 20.877, 102.76, 30.871, 28.881, 30.855, 40.742, 16.854, 29.726, 13.883, 32.844, 17.844, 40.823, 46.769, 20.814, 20.814, 72.838, 35.836, 33.846, 32.844, 23.857, 12.893, 30.861, 28.881, 30.855, 64.858, 27.886, 19.884 ],
"Total": [    721,    605,    338,    473,    476,    538,    576,    238,    320,   1083,    237,    615,    233,    240,    343, 153.85, 138.87, 59.027, 56.033,  52.04, 48.048, 48.048, 44.056,  31.08, 30.082, 29.084,  26.09, 25.092, 23.095, 23.095, 49.017, 33.057, 30.065, 27.072, 26.075, 25.077, 25.077,  24.08, 21.087,  20.09, 17.097, 16.099, 15.102, 14.104, 13.107, 12.082, 11.086, 10.091, 8.1009, 7.1057, 6.1105, 6.1105, 5.1153, 5.1153, 5.1153, 17.057, 8.0959, 8.1032, 14.068, 7.1054, 33.966, 23.022, 10.088, 6.1086, 5.1137, 5.1137, 36.951, 10.084, 7.1018, 9.0997, 8.0844, 13.064, 40.981, 15.078, 5.1104, 43.905, 28.985, 26.001, 17.049,  13.07,  13.07, 9.0913, 9.0913, 8.0966, 8.0966, 8.0966, 8.0966,  7.102, 6.1073, 6.1073, 12.058, 9.0782, 6.0986, 6.0986, 6.0986, 5.1053, 5.1053, 5.1053, 11.066,  11.07, 7.0967, 55.798,  26.98, 10.081, 77.713, 9.0513, 7.0708, 7.0708, 7.0708, 5.0904, 5.0904, 5.0983, 7.0808, 9.0653, 37.851, 6.0866, 17.014, 5.0997, 5.1003, 18.989, 186.77, 17.071,  39.04, 93.952, 54.006, 63.862, 615.75, 344.34,  238.5, 49.011, 538.77,  45.05, 36.943, 576.72, 111.82, 125.68, 35.053, 33.995, 721.96, 17.023,  56.98, 68.896, 62.843, 23.999, 45.015, 69.867, 45.931, 476.76, 80.907,  605.3, 20.043, 99.842, 355.31, 1083.5, 199.47, 18.055, 15.045, 130.81,  473.5,  21.04, 144.82, 62.949, 27.025, 432.86, 159.56, 74.863, 97.733, 338.67, 38.954, 246.27, 199.47, 25.026, 132.62, 62.909, 240.29, 48.968, 246.27, 36.953,  473.5, 1083.5, 79.807, 23.002,  200.5, 17.062,  605.3, 124.66, 233.03, 378.23, 106.79, 476.76, 94.738, 109.68, 47.926, 40.855, 237.38, 237.36, 320.13, 45.985, 721.96, 111.89, 237.36, 378.23, 576.72,  605.3, 320.13, 75.873, 343.05, 343.05, 94.738, 40.987, 233.03, 1083.5, 721.96, 343.05, 240.29,  238.5, 237.36, 538.77, 72.771, 338.67,  117.8, 98.867, 108.66, 476.76, 108.66, 721.96, 72.884, 237.38, 233.03, 432.86, 1083.5, 432.86,  473.5, 355.31, 615.75, 538.77, 338.67, 240.29, 83.764, 320.13, 124.66, 355.31,  200.5, 615.75, 109.68 ],
"Category": [ "Default", "Default", "Default", "Default", "Default", "Default", "Default", "Default", "Default", "Default", "Default", "Default", "Default", "Default", "Default", "Topic1", "Topic1", "Topic1", "Topic1", "Topic1", "Topic1", "Topic1", "Topic1", "Topic1", "Topic1", "Topic1", "Topic1", "Topic1", "Topic1", "Topic1", "Topic2", "Topic2", "Topic2", "Topic2", "Topic2", "Topic2", "Topic2", "Topic2", "Topic2", "Topic2", "Topic2", "Topic2", "Topic2", "Topic2", "Topic2", "Topic3", "Topic3", "Topic3", "Topic3", "Topic3", "Topic3", "Topic3", "Topic3", "Topic3", "Topic3", "Topic3", "Topic3", "Topic3", "Topic3", "Topic3", "Topic4", "Topic4", "Topic4", "Topic4", "Topic4", "Topic4", "Topic4", "Topic4", "Topic4", "Topic4", "Topic4", "Topic4", "Topic4", "Topic4", "Topic4", "Topic5", "Topic5", "Topic5", "Topic5", "Topic5", "Topic5", "Topic5", "Topic5", "Topic5", "Topic5", "Topic5", "Topic5", "Topic5", "Topic5", "Topic5", "Topic6", "Topic6", "Topic6", "Topic6", "Topic6", "Topic6", "Topic6", "Topic6", "Topic6", "Topic6", "Topic6", "Topic6", "Topic6", "Topic6", "Topic6", "Topic7", "Topic7", "Topic7", "Topic7", "Topic7", "Topic7", "Topic7", "Topic7", "Topic7", "Topic7", "Topic7", "Topic7", "Topic7", "Topic7", "Topic7", "Topic1", "Topic4", "Topic2", "Topic1", "Topic2", "Topic3", "Topic1", "Topic1", "Topic1", "Topic2", "Topic1", "Topic1", "Topic5", "Topic1", "Topic2", "Topic4", "Topic2", "Topic3", "Topic1", "Topic7", "Topic2", "Topic4", "Topic5", "Topic7", "Topic2", "Topic3", "Topic4", "Topic1", "Topic2", "Topic1", "Topic5", "Topic2", "Topic1", "Topic1", "Topic2", "Topic3", "Topic6", "Topic1", "Topic4", "Topic3", "Topic1", "Topic2", "Topic3", "Topic2", "Topic3", "Topic3", "Topic6", "Topic7", "Topic5", "Topic2", "Topic4", "Topic5", "Topic3", "Topic4", "Topic2", "Topic3", "Topic4", "Topic6", "Topic2", "Topic2", "Topic6", "Topic7", "Topic5", "Topic5", "Topic4", "Topic5", "Topic6", "Topic1", "Topic5", "Topic4", "Topic2", "Topic5", "Topic6", "Topic7", "Topic3", "Topic1", "Topic6", "Topic3", "Topic4", "Topic2", "Topic6", "Topic2", "Topic3", "Topic6", "Topic1", "Topic3", "Topic3", "Topic5", "Topic7", "Topic4", "Topic5", "Topic3", "Topic6", "Topic2", "Topic7", "Topic7", "Topic4", "Topic6", "Topic6", "Topic2", "Topic3", "Topic3", "Topic5", "Topic6", "Topic7", "Topic7", "Topic7", "Topic5", "Topic7", "Topic3", "Topic5", "Topic7", "Topic7", "Topic2", "Topic4", "Topic4", "Topic5", "Topic6", "Topic7", "Topic4", "Topic3", "Topic5", "Topic2", "Topic3", "Topic6" ] 
},
"token.table": {
 "Term": [ "“the", "absorb", "absorb", "absorb", "actual", "actual", "allow", "allow", "also", "also", "also", "amount", "amount", "annual", "anyth", "anyth", "area", "area", "area", "area", "argu", "away", "becaus", "becaus", "becaus", "becaus", "becaus", "becom", "believ", "between", "between", "big", "big", "big", "build", "build", "cannot", "categori", "caus", "caus", "caus", "caus", "chanc", "chang", "chang", "chang", "chang", "charleston", "charleston", "charleston", "charleston", "charleston’", "citi", "citi", "citi", "citizen", "citizen", "city’", "claim", "claim", "class", "collect", "communiti", "concern", "concret", "cover", "cover", "creat", "creat", "cycl", "cycl", "damag", "danger", "data", "data", "data", "decid", "depend", "destroy", "develop", "develop", "develop", "differ", "differ", "differ", "differ", "dirt", "down", "down", "due", "dure", "dure", "dure", "even", "even", "eventu", "eventu", "everi", "everi", "everi", "exampl", "exampl", "expand", "experi", "experi", "explain", "fall", "fall", "fall", "fall", "fallen", "field", "fill", "first", "first", "first", "five", "fix", "flood", "flood", "flood", "flood", "flow", "flow", "forest", "forest", "form", "form", "found", "go", "go", "go", "go", "gone", "got", "got", "graph", "graph", "graph", "heavili", "help", "hesh", "hesh", "highest", "highest", "him", "home", "human", "human", "human", "i’m", "imperm", "imperm", "imperm", "impermi", "impermi", "impermi", "improv", "inaccur", "inaccur", "inch", "inch", "increas", "increas", "increas", "increas", "indic", "inform", "inform", "investig", "investig", "isn’t", "issu", "it’", "it’", "job", "jump", "jump", "lake", "land", "land", "land", "land", "last", "last", "last", "led", "local", "local", "lot", "lot", "lot", "lot", "lot", "lower", "lower", "lowest", "make", "make", "make", "man", "man", "mani", "mani", "manmad", "mass", "mass", "materi", "materi", "measur", "meteorologist", "meteorologist", "meteorologist", "meteorologist", "meteorologist’", "meteorologist’", "middl", "middl", "natur", "natur", "natur", "natur", "need", "new", "new", "normal", "normal", "nowher", "other", "other", "over", "over", "over", "over", "pattern", "pattern", "percent", "percent", "percentag", "percentag", "percept", "percept", "permeabl", "permeabl", "permeabl", "point", "point", "pond", "precipit", "precipit", "precipit", "problem", "problem", "problem", "proof", "rain", "rain", "rain", "rain", "rainfal", "rais", "rais", "reach", "reason", "reason", "receiv", "receiv", "recent", "research", "resourc", "resourc", "right", "right", "right", "river", "river", "said", "said", "say", "say", "say", "school", "school", "scienc", "season", "seem", "seen", "show", "show", "show", "sidewalk", "sidewalk", "sinc", "sinc", "sinc", "small", "small", "snowfal", "soccer", "span", "spong", "stand", "start", "start", "start", "steadili", "steadili", "still", "still", "storm", "stream", "student’", "surfac", "surfac", "surfac", "surfac", "system", "talk", "talk", "than", "than", "than", "that’", "theori", "therefor", "thing", "thing", "thing", "those", "three", "three", "through", "through", "through", "time", "time", "time", "time", "time", "too", "town", "town", "tree", "turn", "turn", "until", "until", "until", "up", "up", "up", "up", "use", "use", "variabl", "veri", "veri", "veri", "veri", "wash", "wash", "water", "water", "water", "water", "whi", "whi", "wrong", "wrong", "year", "year", "year", "year", "year" ],
"Topic": [ 1, 2, 4, 6, 1, 7, 1, 4, 1, 2, 3, 1, 7, 1, 3, 6, 1, 2, 4, 6, 3, 2, 1, 2, 3, 4, 7, 1, 1, 1, 3, 2, 6, 7, 2, 4, 1, 5, 1, 2, 5, 7, 6, 1, 5, 6, 7, 1, 2, 3, 5, 1, 1, 2, 5, 2, 5, 5, 1, 7, 5, 5, 5, 5, 2, 2, 4, 1, 4, 4, 7, 5, 5, 1, 3, 5, 3, 7, 2, 1, 4, 6, 1, 5, 6, 7, 2, 2, 6, 1, 1, 3, 6, 2, 3, 4, 6, 2, 5, 6, 4, 6, 2, 3, 7, 3, 2, 3, 6, 7, 7, 4, 7, 1, 3, 7, 6, 2, 1, 2, 3, 5, 2, 4, 2, 4, 3, 7, 5, 1, 2, 4, 6, 2, 2, 3, 1, 3, 7, 5, 2, 2, 3, 5, 6, 3, 2, 2, 4, 5, 3, 1, 4, 6, 2, 4, 7, 5, 1, 3, 1, 6, 1, 3, 4, 7, 5, 3, 5, 1, 5, 1, 1, 2, 3, 6, 4, 7, 4, 1, 2, 5, 6, 2, 5, 7, 1, 1, 5, 1, 2, 3, 5, 7, 1, 6, 6, 2, 4, 7, 1, 6, 2, 5, 6, 1, 6, 3, 4, 5, 1, 2, 3, 5, 1, 3, 4, 5, 1, 2, 4, 6, 2, 1, 2, 1, 7, 2, 1, 2, 1, 2, 5, 6, 1, 3, 2, 6, 1, 6, 6, 7, 1, 4, 6, 3, 4, 4, 1, 3, 5, 1, 2, 5, 3, 1, 2, 5, 7, 1, 3, 6, 6, 1, 2, 5, 7, 1, 5, 1, 6, 2, 3, 5, 4, 7, 2, 3, 1, 3, 5, 2, 5, 5, 6, 3, 3, 1, 3, 7, 2, 4, 1, 2, 5, 1, 4, 1, 4, 7, 4, 6, 2, 3, 5, 1, 5, 2, 7, 7, 4, 3, 1, 4, 6, 7, 2, 3, 7, 1, 2, 7, 2, 3, 1, 1, 2, 4, 1, 1, 5, 1, 2, 4, 1, 2, 3, 5, 7, 2, 2, 5, 2, 4, 6, 1, 3, 5, 1, 2, 6, 7, 2, 5, 7, 1, 3, 5, 6, 4, 7, 1, 2, 4, 7, 2, 3, 2, 3, 1, 3, 5, 6, 7 ],
"Freq": [ 0.99656, 0.9108, 0.066644, 0.022215, 0.50002, 0.50002, 0.4935, 0.50801, 0.37351, 0.36503, 0.26316, 0.90148, 0.10063, 0.99923, 0.85299, 0.14217, 0.68891, 0.023129, 0.17512, 0.11234, 0.98513, 0.99692, 0.32112, 0.50363, 0.09472, 0.032343, 0.048515, 0.99874, 0.99942, 0.50016, 0.50016, 0.35247, 0.11749, 0.5287, 0.68179, 0.32084, 0.99727, 0.98996, 0.90317, 0.0087123, 0.06389, 0.023233, 0.99139, 0.38477, 0.19238, 0.28858, 0.13742, 0.34689, 0.31191, 0.16324, 0.18073,  1.001, 0.35412, 0.3242, 0.3242, 0.27971, 0.71925, 0.98243, 0.99054, 0.010708, 1.0022, 1.0005, 0.98243, 0.98806, 0.99325, 0.41006, 0.5858, 0.39042, 0.61004, 0.33093, 0.66187, 0.99714, 0.98996, 0.39308, 0.23264, 0.37704, 0.98192, 0.99433, 0.99184, 0.73622, 0.17829, 0.085998, 0.12238, 0.19581, 0.34267, 0.34267, 0.99382, 0.61398, 0.38844, 1.0009, 0.11077, 0.77542, 0.11077, 0.97336, 0.025615, 0.84485, 0.14081, 0.37886, 0.081185, 0.54123, 0.61235, 0.38272, 0.99669, 0.28245, 0.70614, 0.99095, 0.23777, 0.079258, 0.026419, 0.66048, 0.98224,  1.001, 0.98998, 0.19011, 0.71292, 0.095056, 0.97937, 0.99259, 0.56946, 0.31288, 0.074759, 0.043379, 0.53675, 0.46356, 0.39792, 0.59688, 0.39213, 0.5882, 0.99464, 0.073092, 0.56037, 0.29237, 0.077153, 0.99785, 0.23533, 0.76483, 0.50766, 0.43245, 0.062674, 0.98806, 0.99692, 0.12341, 0.86386, 0.090366, 0.90366, 0.97746, 0.99714, 0.23949, 0.52253, 0.23949, 0.98192, 0.85008, 0.063106, 0.087235, 0.29387, 0.058775, 0.64652, 0.98564, 0.70802, 0.29332, 0.54229, 0.46044, 0.89322, 0.045473, 0.058465, 0.0032481, 0.98806, 0.87942, 0.11726, 0.14968, 0.84818, 0.99742, 0.99635, 0.93857, 0.061211, 0.97937, 0.61848, 0.37109, 0.99126, 0.58166, 0.34107, 0.055522, 0.023795, 0.28239, 0.66746, 0.051343, 0.99587, 0.60866, 0.39329, 0.055219, 0.49698, 0.0092032, 0.2853, 0.15646, 0.18532, 0.8154, 0.9952, 0.67555, 0.13722,   0.19, 0.090338, 0.90338, 0.89504, 0.1053, 0.98384, 0.19839, 0.79356, 0.054126, 0.9472, 0.99464, 0.45075, 0.16429, 0.24855, 0.13902, 0.96858, 0.031931, 0.10827, 0.89327, 0.57476, 0.16243, 0.096834, 0.16868, 0.99964, 0.057056, 0.94142, 0.19615, 0.78458, 0.99554, 0.037033, 0.96285, 0.18235, 0.28264, 0.35558, 0.18235, 0.44927, 0.55138, 0.1613, 0.84232, 0.27023, 0.73347, 0.32859, 0.65718, 0.66566, 0.16009, 0.17695, 0.84443, 0.14074, 0.98222, 0.81669, 0.14218, 0.041615, 0.70923, 0.20545, 0.087247, 0.97746, 0.35728, 0.30413, 0.097441, 0.24213,  0.999, 0.26586, 0.73112, 0.98384, 0.38432, 0.6167, 0.42129, 0.57928, 0.99587, 0.98806, 0.14091, 0.84547, 0.25902, 0.66605, 0.074006, 0.89255, 0.099172, 0.20356, 0.79859, 0.31489, 0.67271, 0.014313, 0.22278, 0.77972, 0.99997, 0.98384, 0.98755, 0.97746, 0.84855, 0.12231, 0.030578, 0.55636, 0.44509, 0.82861, 0.10358, 0.069051, 0.21979, 0.76926, 0.99954, 0.99906, 0.98224, 0.97776, 0.97937, 0.41473, 0.41473, 0.17343, 0.97669, 0.022197, 0.5217, 0.47822, 0.98998, 0.97776, 0.99324, 0.75904, 0.12189, 0.078951, 0.041553, 0.99587, 0.86463, 0.12352, 0.65858, 0.15093, 0.19209, 0.99827, 0.9922,  0.999, 0.01236, 0.84047, 0.14832, 0.99711, 0.23443, 0.76191, 0.33418, 0.15118, 0.51719, 0.2507, 0.20295, 0.22683, 0.16714, 0.1552, 0.99734, 0.88532, 0.11625, 0.99433, 0.58704, 0.39136, 0.47448, 0.38222, 0.14498, 0.26634, 0.53269, 0.099879, 0.10404, 0.81019, 0.19063, 0.98998, 0.41731, 0.10433, 0.062597, 0.41731, 0.39218, 0.58827, 0.23231, 0.42661, 0.29778, 0.044351, 0.79125, 0.21033, 0.48088, 0.52095, 0.36905, 0.0987, 0.1974, 0.26177, 0.077243 ] 
},
"R":     15,
"lambda.step":   0.01,
"plot.opts": {
 "xlab": "PC1",
"ylab": "PC2" 
},
"topic.order": [ 5, 2, 7, 6, 3, 4, 1 ] 
}